Arihmetic 
    +, -, *, /, // , %, **

Assignment
    =, += , -=, *=, %=, /= , //= 

Comparison Operator 
    <, <=, >, >=, != , ==

Bitwise Opeerators 
    &&, || , ! 

Membership operators 
    in, not in 

Identity Operators 
    is , is not 






